[gd_scene load_steps=6 format=2]

[ext_resource path="res://assets/audio/music/src/UserInterface/PauseMenu.tscn" type="PackedScene" id=1]
[ext_resource path="res://assets/audio/music/src/Main/Game.gd" type="Script" id=2]
[ext_resource path="res://assets/audio/music/src/UserInterface/Titlescreen.tscn" type="PackedScene" id=3]
[ext_resource path="res://assets/audio/music/src/UserInterface/LevelClearedOverlay.tscn" type="PackedScene" id=4]
[ext_resource path="res://assets/audio/music/src/Main/Credits.tscn" type="PackedScene" id=5]

[node name="Game" type="Node"]
script = ExtResource( 2 )

[node name="InterfaceLayer" type="CanvasLayer" parent="."]
layer = 100

[node name="Credits" parent="InterfaceLayer" instance=ExtResource( 5 )]
visible = false

[node name="PauseMenu" parent="InterfaceLayer" instance=ExtResource( 1 )]

[node name="LevelClearedOverlay" parent="InterfaceLayer" instance=ExtResource( 4 )]

[node name="Title Screen" parent="." instance=ExtResource( 3 )]

[connection signal="move_on" from="InterfaceLayer/LevelClearedOverlay" to="." method="_on_LevelClearedOverlay_move_on"]
