[gd_scene load_steps=5 format=2]

[ext_resource path="res://src/UserInterface/Titlescreen.gd" type="Script" id=1]
[ext_resource path="res://assets/theme/user_interface.tres" type="Theme" id=2]
[ext_resource path="res://src/UserInterface/SettingsMenu.tscn" type="PackedScene" id=3]
[ext_resource path="res://assets/audio/music/09 - Abstraction -  Track9 End Credits.ogg" type="AudioStream" id=4]

[node name="Title Screen" type="Control"]
anchor_right = 1.0
anchor_bottom = 1.0
margin_top = 1.0
margin_bottom = 1.0
theme = ExtResource( 2 )
script = ExtResource( 1 )
__meta__ = {
"_edit_use_anchors_": false
}

[node name="TitleMenu" type="VBoxContainer" parent="."]
anchor_left = 0.5
anchor_top = 0.5
anchor_right = 0.5
anchor_bottom = 0.5
margin_left = -140.0
margin_top = 1.52588e-05
margin_right = 130.0
margin_bottom = 74.0
alignment = 1
__meta__ = {
"_edit_use_anchors_": false
}

[node name="StartButton" type="Button" parent="TitleMenu"]
margin_top = 6.0
margin_right = 270.0
margin_bottom = 34.0
text = "Start"
__meta__ = {
"_edit_use_anchors_": false
}

[node name="SettingsButton" type="Button" parent="TitleMenu"]
margin_top = 38.0
margin_right = 270.0
margin_bottom = 66.0
text = "Settings"

[node name="SettingsMenu" parent="." instance=ExtResource( 3 )]
visible = false

[node name="BGM" type="AudioStreamPlayer" parent="."]
stream = ExtResource( 4 )
autoplay = true

[node name="Title" type="Label" parent="."]
anchor_left = 0.496
anchor_top = 0.127
anchor_right = 0.496
anchor_bottom = 0.127
margin_left = -356.8
margin_top = -29.96
margin_right = -196.8
margin_bottom = 0.0400009
rect_scale = Vector2( 4.5, 5 )
text = "Run Jump And Shoot"
align = 1
valign = 1
__meta__ = {
"_edit_use_anchors_": false
}

[node name="Label" type="Label" parent="."]
anchor_left = 0.315
anchor_top = 0.85
anchor_right = 0.315
anchor_bottom = 0.85
margin_left = -52.0
margin_top = -33.0
margin_right = 52.0
margin_bottom = 33.0
text = "Run Left:
- Left Arrow
- A"
__meta__ = {
"_edit_use_anchors_": false
}

[node name="Label2" type="Label" parent="."]
anchor_left = 0.131
anchor_top = 0.854
anchor_right = 0.131
anchor_bottom = 0.854
margin_left = -54.8
margin_top = -32.92
margin_right = 55.2
margin_bottom = 33.08
text = "Run Right:
- Right Arrow
- D"

[node name="Label3" type="Label" parent="."]
anchor_left = 0.569
anchor_top = 0.868
anchor_right = 0.569
anchor_bottom = 0.868
margin_left = -55.2
margin_top = -44.64
margin_right = 54.8
margin_bottom = 21.36
text = "Jump:
- Space Bar
- Up Arrow
- W"

[node name="Label4" type="Label" parent="."]
anchor_left = 0.844
anchor_top = 0.866
anchor_right = 0.844
anchor_bottom = 0.866
margin_left = -75.2
margin_top = -44.68
margin_right = 74.8
margin_bottom = 44.32
text = "Shoot:
- Left Mouse Click
- CTRL
- Z"
__meta__ = {
"_edit_use_anchors_": false
}

[node name="Label5" type="Label" parent="."]
anchor_left = 0.858
anchor_top = 0.589
anchor_right = 0.858
anchor_bottom = 0.589
margin_left = -79.4
margin_top = -35.72
margin_right = 120.6
margin_bottom = 53.28
rect_scale = Vector2( 0.8, 0.8 )
text = "*Controller Support
When Applicable
(I don't think web works)"
__meta__ = {
"_edit_use_anchors_": false
}

[node name="Label6" type="Label" parent="."]
anchor_left = 0.165
anchor_top = 0.615
anchor_right = 0.165
anchor_bottom = 0.615
margin_left = -88.0
margin_top = -36.2
margin_right = 122.0
margin_bottom = 29.8
rect_scale = Vector2( 0.8, 0.8 )
text = "*Touch Controls
When Applicable"
__meta__ = {
"_edit_use_anchors_": false
}

[connection signal="pressed" from="TitleMenu/StartButton" to="." method="_on_StartButton_pressed"]
[connection signal="pressed" from="TitleMenu/SettingsButton" to="." method="_on_SettingsButton_pressed"]
[connection signal="back_button_pressed" from="SettingsMenu" to="." method="_on_SettingsMenu_back_button_pressed"]
