[gd_scene load_steps=11 format=2]

[ext_resource path="res://assets/art/tileset/default_tileset.tres" type="TileSet" id=1]
[ext_resource path="res://src/Level/ParallaxBackground.tscn" type="PackedScene" id=2]
[ext_resource path="res://src/Actors/Enemy.tscn" type="PackedScene" id=3]
[ext_resource path="res://assets/audio/music/music.ogg" type="AudioStream" id=5]
[ext_resource path="res://src/Level/Level.gd" type="Script" id=6]
[ext_resource path="res://src/Platforms/ShortPlatform.tscn" type="PackedScene" id=7]
[ext_resource path="res://src/Actors/Player.tscn" type="PackedScene" id=8]

[sub_resource type="Animation" id=1]
resource_name = "move"
length = 6.0
loop = true
tracks/0/type = "value"
tracks/0/path = NodePath(".:position")
tracks/0/interp = 1
tracks/0/loop_wrap = true
tracks/0/imported = false
tracks/0/enabled = true
tracks/0/keys = {
"times": PoolRealArray( 0.5, 2.5, 3.5, 5.5 ),
"transitions": PoolRealArray( 1, 1, 1, 1 ),
"update": 0,
"values": [ Vector2( 1700.11, 432.425 ), Vector2( 1820.11, 432.425 ), Vector2( 1820.11, 432.425 ), Vector2( 1700.11, 432.425 ) ]
}

[sub_resource type="RectangleShape2D" id=2]
extents = Vector2( 562.547, 24.9941 )

[sub_resource type="RectangleShape2D" id=3]
extents = Vector2( 7.99976, 88 )

[node name="Level1" type="Node2D"]
script = ExtResource( 6 )
limit_left = -128
limit_right = 3264
limit_bottom = 640

[node name="TileMap" type="TileMap" parent="."]
tile_set = ExtResource( 1 )
cell_size = Vector2( 32, 32 )
collision_layer = 16
collision_mask = 0
format = 1
tile_data = PoolIntArray( 262137, 7, 0, 262138, 7, 0, 262139, 7, 0, 262140, 7, 0, 262141, 7, 0, 262142, 7, 0, 262143, 7, 0, 327673, 7, 0, 327674, 7, 0, 327675, 7, 0, 327676, 7, 0, 327677, 7, 0, 327678, 7, 0, 327679, 7, 0, 393209, 7, 0, 393210, 7, 0, 393211, 7, 0, 393212, 7, 0, 393213, 7, 0, 393214, 7, 0, 393215, 7, 0, 458745, 7, 0, 458746, 7, 0, 458747, 7, 0, 458748, 7, 0, 458749, 7, 0, 458750, 7, 0, 458751, 7, 0, 524281, 7, 0, 524282, 7, 0, 524283, 7, 0, 524284, 7, 0, 524285, 7, 0, 524286, 7, 0, 524287, 3, 0, 589817, 7, 0, 589818, 7, 0, 589819, 7, 0, 589820, 7, 0, 589821, 7, 0, 589822, 7, 0, 589823, 3, 0, 524309, 536870914, 0, 524310, 536870912, 0, 524311, 536870912, 0, 524312, 536870912, 0, 524313, 536870912, 0, 524314, 536870912, 0, 524315, 536870912, 0, 524316, 536870912, 0, 524317, 536870912, 0, 524318, 2, 0, 655353, 7, 0, 655354, 7, 0, 655355, 7, 0, 655356, 7, 0, 655357, 7, 0, 655358, 7, 0, 655359, 3, 0, 589844, 536870914, 0, 589846, 7, 0, 589847, 7, 0, 589848, 7, 0, 589849, 7, 0, 589850, 7, 0, 589851, 7, 0, 589852, 7, 0, 589853, 7, 0, 589855, 2, 0, 589924, 14, 0, 720889, 7, 0, 720890, 7, 0, 720891, 7, 0, 720892, 7, 0, 720893, 7, 0, 720894, 7, 0, 720895, 3, 0, 655379, 536870914, 0, 655381, 7, 0, 655382, 7, 0, 655383, 7, 0, 655384, 7, 0, 655385, 7, 0, 655386, 7, 0, 655387, 7, 0, 655388, 7, 0, 655389, 7, 0, 655390, 7, 0, 655392, 0, 0, 655393, 0, 0, 655394, 0, 0, 655395, 0, 0, 655396, 0, 0, 655397, 2, 0, 655460, 11, 0, 786425, 7, 0, 786426, 7, 0, 786427, 7, 0, 786428, 7, 0, 786429, 7, 0, 786430, 7, 0, 786431, 3, 0, 720914, 536870914, 0, 720916, 7, 0, 720917, 7, 0, 720918, 7, 0, 720919, 7, 0, 720920, 7, 0, 720921, 7, 0, 720922, 7, 0, 720923, 7, 0, 720924, 7, 0, 720925, 7, 0, 720926, 7, 0, 720927, 7, 0, 720928, 7, 0, 720929, 7, 0, 720930, 7, 0, 720931, 7, 0, 720932, 7, 0, 720934, 2, 0, 720996, 12, 0, 851961, 7, 0, 851962, 7, 0, 851963, 7, 0, 851964, 7, 0, 851965, 7, 0, 851966, 7, 0, 851967, 3, 0, 786449, 536870914, 0, 786451, 7, 0, 786452, 7, 0, 786453, 7, 0, 786454, 7, 0, 786455, 7, 0, 786456, 7, 0, 786457, 7, 0, 786458, 7, 0, 786459, 7, 0, 786460, 7, 0, 786461, 7, 0, 786462, 7, 0, 786463, 7, 0, 786464, 7, 0, 786465, 7, 0, 786466, 7, 0, 786467, 7, 0, 786468, 7, 0, 786469, 7, 0, 786471, 2, 0, 786532, 11, 0, 917497, 7, 0, 917498, 7, 0, 917499, 7, 0, 917500, 7, 0, 917501, 7, 0, 917502, 7, 0, 917503, 4, 0, 851968, 0, 0, 851969, 0, 0, 851970, 0, 0, 851971, 0, 0, 851972, 0, 0, 851973, 0, 0, 851974, 0, 0, 851975, 0, 0, 851976, 0, 0, 851977, 0, 0, 851978, 0, 0, 851979, 0, 0, 851980, 0, 0, 851981, 0, 0, 851982, 0, 0, 851983, 0, 0, 851984, 0, 0, 851986, 7, 0, 851987, 7, 0, 851988, 7, 0, 851989, 7, 0, 851990, 7, 0, 851991, 7, 0, 851992, 7, 0, 851993, 7, 0, 851994, 7, 0, 851995, 7, 0, 851996, 7, 0, 851997, 7, 0, 851998, 7, 0, 851999, 7, 0, 852000, 7, 0, 852001, 7, 0, 852002, 7, 0, 852003, 7, 0, 852004, 7, 0, 852005, 7, 0, 852006, 7, 0, 852008, 0, 0, 852009, 0, 0, 852010, 0, 0, 852011, 0, 0, 852012, 0, 0, 852013, 0, 0, 852014, 0, 0, 852015, 0, 0, 852016, 0, 0, 852017, 0, 0, 852018, 0, 0, 852019, 1, 0, 852026, 536870913, 0, 852027, 0, 0, 852028, 0, 0, 852029, 0, 0, 852030, 2, 0, 852051, 536870913, 0, 852052, 0, 0, 852053, 0, 0, 852054, 0, 0, 852055, 0, 0, 852056, 0, 0, 852057, 0, 0, 852058, 0, 0, 852059, 0, 0, 852060, 0, 0, 852061, 0, 0, 852062, 0, 0, 852063, 0, 0, 852064, 0, 0, 852065, 0, 0, 852066, 0, 0, 852067, 0, 0, 852068, 13, 0, 852069, 0, 0, 852070, 0, 0, 852071, 0, 0, 852072, 0, 0, 983033, 7, 0, 983034, 7, 0, 983035, 7, 0, 983036, 7, 0, 983037, 7, 0, 983038, 7, 0, 983039, 7, 0, 917504, 7, 0, 917505, 7, 0, 917506, 7, 0, 917507, 7, 0, 917508, 7, 0, 917509, 7, 0, 917510, 7, 0, 917511, 7, 0, 917512, 7, 0, 917513, 7, 0, 917514, 7, 0, 917515, 7, 0, 917516, 7, 0, 917517, 7, 0, 917518, 7, 0, 917519, 7, 0, 917520, 7, 0, 917521, 7, 0, 917522, 7, 0, 917523, 7, 0, 917524, 7, 0, 917525, 7, 0, 917526, 7, 0, 917527, 7, 0, 917528, 7, 0, 917529, 7, 0, 917530, 7, 0, 917531, 7, 0, 917532, 7, 0, 917533, 7, 0, 917534, 7, 0, 917535, 7, 0, 917536, 7, 0, 917537, 7, 0, 917538, 7, 0, 917539, 7, 0, 917540, 7, 0, 917541, 7, 0, 917542, 7, 0, 917543, 7, 0, 917544, 7, 0, 917545, 7, 0, 917546, 7, 0, 917547, 7, 0, 917548, 7, 0, 917549, 7, 0, 917550, 7, 0, 917551, 7, 0, 917552, 7, 0, 917553, 7, 0, 917554, 7, 0, 917555, 3, 0, 917562, 536870915, 0, 917563, 7, 0, 917564, 7, 0, 917565, 7, 0, 917567, 2, 0, 917587, 536870915, 0, 917588, 7, 0, 917589, 7, 0, 917590, 7, 0, 917591, 7, 0, 917592, 7, 0, 917593, 7, 0, 917594, 7, 0, 917595, 7, 0, 917596, 7, 0, 917597, 7, 0, 917598, 7, 0, 917599, 7, 0, 917600, 7, 0, 917601, 7, 0, 917602, 7, 0, 917603, 7, 0, 917604, 7, 0, 917605, 7, 0, 917606, 7, 0, 917607, 7, 0, 917608, 7, 0, 1048569, 7, 0, 1048570, 7, 0, 1048571, 7, 0, 1048572, 7, 0, 1048573, 7, 0, 1048574, 7, 0, 1048575, 7, 0, 983040, 7, 0, 983041, 7, 0, 983042, 7, 0, 983043, 7, 0, 983044, 7, 0, 983045, 7, 0, 983046, 7, 0, 983047, 7, 0, 983048, 7, 0, 983049, 7, 0, 983050, 7, 0, 983051, 7, 0, 983052, 7, 0, 983053, 7, 0, 983054, 7, 0, 983055, 7, 0, 983056, 7, 0, 983057, 7, 0, 983058, 7, 0, 983059, 7, 0, 983060, 7, 0, 983061, 7, 0, 983062, 7, 0, 983063, 7, 0, 983064, 7, 0, 983065, 7, 0, 983066, 7, 0, 983067, 7, 0, 983068, 7, 0, 983069, 7, 0, 983070, 7, 0, 983071, 7, 0, 983072, 7, 0, 983073, 7, 0, 983074, 7, 0, 983075, 7, 0, 983076, 7, 0, 983077, 7, 0, 983078, 7, 0, 983079, 7, 0, 983080, 7, 0, 983081, 7, 0, 983082, 7, 0, 983083, 7, 0, 983084, 7, 0, 983085, 7, 0, 983086, 7, 0, 983087, 7, 0, 983088, 7, 0, 983089, 7, 0, 983090, 7, 0, 983091, 3, 0, 983098, 536870915, 0, 983099, 7, 0, 983100, 7, 0, 983101, 7, 0, 983102, 536870919, 0, 983104, 2, 0, 983123, 536870915, 0, 983124, 7, 0, 983125, 7, 0, 983126, 7, 0, 983127, 7, 0, 983128, 7, 0, 983129, 7, 0, 983130, 7, 0, 983131, 7, 0, 983132, 7, 0, 983133, 7, 0, 983134, 7, 0, 983135, 7, 0, 983136, 7, 0, 983137, 7, 0, 983138, 7, 0, 983139, 7, 0, 983140, 7, 0, 983141, 7, 0, 983142, 7, 0, 983143, 7, 0, 983144, 7, 0, 1114105, 7, 0, 1114106, 7, 0, 1114107, 7, 0, 1114108, 7, 0, 1114109, 7, 0, 1114110, 7, 0, 1114111, 7, 0, 1048576, 7, 0, 1048577, 7, 0, 1048578, 7, 0, 1048579, 7, 0, 1048580, 7, 0, 1048581, 7, 0, 1048582, 7, 0, 1048583, 7, 0, 1048584, 7, 0, 1048585, 7, 0, 1048586, 7, 0, 1048587, 7, 0, 1048588, 7, 0, 1048589, 7, 0, 1048590, 7, 0, 1048591, 7, 0, 1048592, 7, 0, 1048593, 7, 0, 1048594, 7, 0, 1048595, 7, 0, 1048596, 7, 0, 1048597, 7, 0, 1048598, 7, 0, 1048599, 7, 0, 1048600, 7, 0, 1048601, 7, 0, 1048602, 7, 0, 1048603, 7, 0, 1048604, 7, 0, 1048605, 7, 0, 1048606, 7, 0, 1048607, 7, 0, 1048608, 7, 0, 1048609, 7, 0, 1048610, 7, 0, 1048611, 7, 0, 1048612, 7, 0, 1048613, 7, 0, 1048614, 7, 0, 1048615, 7, 0, 1048616, 7, 0, 1048617, 7, 0, 1048618, 7, 0, 1048619, 7, 0, 1048620, 7, 0, 1048621, 7, 0, 1048622, 7, 0, 1048623, 7, 0, 1048624, 7, 0, 1048625, 7, 0, 1048626, 7, 0, 1048627, 3, 0, 1048634, 536870915, 0, 1048635, 7, 0, 1048636, 7, 0, 1048637, 7, 0, 1048638, 7, 0, 1048639, 7, 0, 1048641, 2, 0, 1048652, 536870913, 0, 1048653, 1, 0, 1048659, 536870915, 0, 1048660, 7, 0, 1048661, 7, 0, 1048662, 7, 0, 1048663, 7, 0, 1048664, 7, 0, 1048665, 7, 0, 1048666, 7, 0, 1048667, 7, 0, 1048668, 7, 0, 1048669, 7, 0, 1048670, 7, 0, 1048671, 7, 0, 1048672, 7, 0, 1048673, 7, 0, 1048674, 7, 0, 1048675, 7, 0, 1048676, 7, 0, 1048677, 7, 0, 1048678, 7, 0, 1048679, 7, 0, 1048680, 7, 0, 1179641, 7, 0, 1179642, 7, 0, 1179643, 7, 0, 1179644, 7, 0, 1179645, 7, 0, 1179646, 7, 0, 1179647, 7, 0, 1114112, 7, 0, 1114113, 7, 0, 1114114, 7, 0, 1114115, 7, 0, 1114116, 7, 0, 1114117, 7, 0, 1114118, 7, 0, 1114119, 7, 0, 1114120, 7, 0, 1114121, 7, 0, 1114122, 7, 0, 1114123, 7, 0, 1114124, 7, 0, 1114125, 7, 0, 1114126, 7, 0, 1114127, 7, 0, 1114128, 7, 0, 1114129, 7, 0, 1114130, 7, 0, 1114131, 7, 0, 1114132, 7, 0, 1114133, 7, 0, 1114134, 7, 0, 1114135, 7, 0, 1114136, 7, 0, 1114137, 7, 0, 1114138, 7, 0, 1114139, 7, 0, 1114140, 7, 0, 1114141, 7, 0, 1114142, 7, 0, 1114143, 7, 0, 1114144, 7, 0, 1114145, 7, 0, 1114146, 7, 0, 1114147, 7, 0, 1114148, 7, 0, 1114149, 7, 0, 1114150, 7, 0, 1114151, 7, 0, 1114152, 7, 0, 1114153, 7, 0, 1114154, 7, 0, 1114155, 7, 0, 1114156, 7, 0, 1114157, 7, 0, 1114158, 7, 0, 1114159, 7, 0, 1114160, 7, 0, 1114161, 7, 0, 1114162, 7, 0, 1114163, 3, 0, 1114170, 536870915, 0, 1114171, 7, 0, 1114172, 7, 0, 1114173, 7, 0, 1114174, 7, 0, 1114175, 7, 0, 1114176, 7, 0, 1114178, 2, 0, 1114188, 536870915, 0, 1114189, 3, 0, 1114195, 536870915, 0, 1114196, 7, 0, 1114197, 7, 0, 1114198, 7, 0, 1114199, 7, 0, 1114200, 7, 0, 1114201, 7, 0, 1114202, 7, 0, 1114203, 7, 0, 1114204, 7, 0, 1114205, 7, 0, 1114206, 7, 0, 1114207, 7, 0, 1114208, 7, 0, 1114209, 7, 0, 1114210, 7, 0, 1114211, 7, 0, 1114212, 7, 0, 1114213, 7, 0, 1114214, 7, 0, 1114215, 7, 0, 1114216, 7, 0, 1245177, 7, 0, 1245178, 7, 0, 1245179, 7, 0, 1245180, 7, 0, 1245181, 7, 0, 1245182, 7, 0, 1245183, 7, 0, 1179648, 7, 0, 1179649, 7, 0, 1179650, 7, 0, 1179651, 7, 0, 1179652, 7, 0, 1179653, 7, 0, 1179654, 7, 0, 1179655, 7, 0, 1179656, 7, 0, 1179657, 7, 0, 1179658, 7, 0, 1179659, 7, 0, 1179660, 7, 0, 1179661, 7, 0, 1179662, 7, 0, 1179663, 7, 0, 1179664, 7, 0, 1179665, 7, 0, 1179666, 7, 0, 1179667, 7, 0, 1179668, 7, 0, 1179669, 7, 0, 1179670, 7, 0, 1179671, 7, 0, 1179672, 7, 0, 1179673, 7, 0, 1179674, 7, 0, 1179675, 7, 0, 1179676, 7, 0, 1179677, 7, 0, 1179678, 7, 0, 1179679, 7, 0, 1179680, 7, 0, 1179681, 7, 0, 1179682, 7, 0, 1179683, 7, 0, 1179684, 7, 0, 1179685, 7, 0, 1179686, 7, 0, 1179687, 7, 0, 1179688, 7, 0, 1179689, 7, 0, 1179690, 7, 0, 1179691, 7, 0, 1179692, 7, 0, 1179693, 7, 0, 1179694, 7, 0, 1179695, 7, 0, 1179696, 7, 0, 1179697, 7, 0, 1179698, 7, 0, 1179699, 3, 0, 1179706, 536870915, 0, 1179707, 7, 0, 1179708, 7, 0, 1179709, 7, 0, 1179710, 7, 0, 1179711, 7, 0, 1179712, 7, 0, 1179713, 7, 0, 1179715, 0, 0, 1179716, 0, 0, 1179717, 0, 0, 1179718, 0, 0, 1179719, 1, 0, 1179722, 536870913, 0, 1179723, 536870912, 0, 1179724, 536870916, 0, 1179725, 4, 0, 1179726, 0, 0, 1179727, 0, 0, 1179728, 0, 0, 1179729, 0, 0, 1179730, 0, 0, 1179731, 536870916, 0, 1179732, 7, 0, 1179733, 7, 0, 1179734, 7, 0, 1179735, 7, 0, 1179736, 7, 0, 1179737, 7, 0, 1179738, 7, 0, 1179739, 7, 0, 1179740, 7, 0, 1179741, 7, 0, 1179742, 7, 0, 1179743, 7, 0, 1179744, 7, 0, 1179745, 7, 0, 1179746, 7, 0, 1179747, 7, 0, 1179748, 7, 0, 1179749, 7, 0, 1179750, 7, 0, 1179751, 7, 0, 1179752, 7, 0, 1310713, 7, 0, 1310714, 7, 0, 1310715, 7, 0, 1310716, 7, 0, 1310717, 7, 0, 1310718, 7, 0, 1310719, 7, 0, 1245184, 7, 0, 1245185, 7, 0, 1245186, 7, 0, 1245187, 7, 0, 1245188, 7, 0, 1245189, 7, 0, 1245190, 7, 0, 1245191, 7, 0, 1245192, 7, 0, 1245193, 7, 0, 1245194, 7, 0, 1245195, 7, 0, 1245196, 7, 0, 1245197, 7, 0, 1245198, 7, 0, 1245199, 7, 0, 1245200, 7, 0, 1245201, 7, 0, 1245202, 7, 0, 1245203, 7, 0, 1245204, 7, 0, 1245205, 7, 0, 1245206, 7, 0, 1245207, 7, 0, 1245208, 7, 0, 1245209, 7, 0, 1245210, 7, 0, 1245211, 7, 0, 1245212, 7, 0, 1245213, 7, 0, 1245214, 7, 0, 1245215, 7, 0, 1245216, 7, 0, 1245217, 7, 0, 1245218, 7, 0, 1245219, 7, 0, 1245220, 7, 0, 1245221, 7, 0, 1245222, 7, 0, 1245223, 7, 0, 1245224, 7, 0, 1245225, 7, 0, 1245226, 7, 0, 1245227, 7, 0, 1245228, 7, 0, 1245229, 7, 0, 1245230, 7, 0, 1245231, 7, 0, 1245232, 7, 0, 1245233, 7, 0, 1245234, 7, 0, 1245235, 3, 0, 1245242, 536870915, 0, 1245243, 7, 0, 1245244, 7, 0, 1245245, 7, 0, 1245246, 7, 0, 1245247, 7, 0, 1245248, 7, 0, 1245249, 7, 0, 1245250, 7, 0, 1245251, 7, 0, 1245252, 7, 0, 1245253, 7, 0, 1245254, 7, 0, 1245255, 3, 0, 1245258, 536870915, 0, 1245259, 7, 0, 1245260, 7, 0, 1245261, 7, 0, 1245262, 7, 0, 1245263, 7, 0, 1245264, 7, 0, 1245265, 7, 0, 1245266, 7, 0, 1245267, 7, 0, 1245268, 7, 0, 1245269, 7, 0, 1245270, 7, 0, 1245271, 7, 0, 1245272, 7, 0, 1245273, 7, 0, 1245274, 7, 0, 1245275, 7, 0, 1245276, 7, 0, 1245277, 7, 0, 1245278, 7, 0, 1245279, 7, 0, 1245280, 7, 0, 1245281, 7, 0, 1245282, 7, 0, 1245283, 7, 0, 1245284, 7, 0, 1245285, 7, 0, 1245286, 7, 0, 1245287, 7, 0, 1245288, 7, 0 )
__meta__ = {
"_edit_lock_": true
}

[node name="ParallaxBackground" parent="." instance=ExtResource( 2 )]

[node name="Enemies" type="Node" parent="."]

[node name="Enemy" parent="Enemies" instance=ExtResource( 3 )]
position = Vector2( 479.672, 399.411 )

[node name="Enemy2" parent="Enemies" instance=ExtResource( 3 )]
position = Vector2( 643.722, 269.948 )

[node name="Enemy3" parent="Enemies" instance=ExtResource( 3 )]
position = Vector2( 1042.04, 296.377 )

[node name="Enemy4" parent="Enemies" instance=ExtResource( 3 )]
position = Vector2( 1425.25, 390.764 )
jumper = true

[node name="Enemy5" parent="Enemies" instance=ExtResource( 3 )]
position = Vector2( 1920.5, 387.495 )

[node name="Enemy6" parent="Enemies" instance=ExtResource( 3 )]
position = Vector2( 2632, 565.875 )
jumper = true

[node name="Enemy7" parent="Enemies" instance=ExtResource( 3 )]
position = Vector2( 2528, 560 )
jumper = true

[node name="Enemy8" parent="Enemies" instance=ExtResource( 3 )]
position = Vector2( 2456, 492.633 )

[node name="Enemy9" parent="Enemies" instance=ExtResource( 3 )]
position = Vector2( 2591.72, 560 )
jumper = true

[node name="Platforms" type="Node" parent="."]

[node name="ShortPlatform" parent="Platforms" instance=ExtResource( 7 )]
position = Vector2( 1700.11, 432.425 )

[node name="AnimationPlayer" type="AnimationPlayer" parent="Platforms/ShortPlatform"]
autoplay = "move"
playback_process_mode = 0
anims/move = SubResource( 1 )

[node name="ShortPlatform2" parent="Platforms" instance=ExtResource( 7 )]
position = Vector2( 2592, 496 )

[node name="Death Planes" type="Node" parent="."]

[node name="Area2D" type="Area2D" parent="Death Planes"]
position = Vector2( 53.3936, -2.66968 )

[node name="CollisionShape2D" type="CollisionShape2D" parent="Death Planes/Area2D"]
position = Vector2( 2002.61, 666.67 )
shape = SubResource( 2 )

[node name="BGM" type="AudioStreamPlayer" parent="."]
stream = ExtResource( 5 )
autoplay = true
bus = "BGM"

[node name="Player" parent="." instance=ExtResource( 8 )]
position = Vector2( 88, 376 )

[node name="ClearArea" type="Area2D" parent="."]
position = Vector2( 3136, 0 )

[node name="CollisionShape2D" type="CollisionShape2D" parent="ClearArea"]
position = Vector2( 79.9998, 344 )
shape = SubResource( 3 )

[node name="RespawnPoint" type="Position2D" parent="."]
position = Vector2( 48, 387.495 )

[connection signal="body_entered" from="Death Planes/Area2D" to="." method="_on_DeathPlane_body_entered"]
[connection signal="dead" from="Player" to="." method="_on_Player_dead"]
[connection signal="body_entered" from="ClearArea" to="." method="_on_Clear_body_entered"]
