[gd_scene load_steps=14 format=2]

[ext_resource path="res://src/Level/Level.gd" type="Script" id=1]
[ext_resource path="res://assets/art/tileset/default_tileset.tres" type="TileSet" id=2]
[ext_resource path="res://src/Actors/Enemy.tscn" type="PackedScene" id=3]
[ext_resource path="res://src/Actors/Player.tscn" type="PackedScene" id=4]
[ext_resource path="res://src/Level/Water.gd" type="Script" id=5]
[ext_resource path="res://assets/audio/sfx/splash - blaukreuz (edited by Iwan 'qubodup' Gabovitch) .wav" type="AudioStream" id=6]
[ext_resource path="res://src/Platforms/ShortPlatform.tscn" type="PackedScene" id=7]
[ext_resource path="res://assets/audio/music/04 - Abstraction - Track 4.ogg" type="AudioStream" id=8]
[ext_resource path="res://src/Objects/CheckPoint.tscn" type="PackedScene" id=9]

[sub_resource type="RectangleShape2D" id=1]
extents = Vector2( 2011.39, 10 )

[sub_resource type="RectangleShape2D" id=2]
extents = Vector2( 10, 84.9072 )

[sub_resource type="RectangleShape2D" id=3]
extents = Vector2( 214.513, 103.075 )

[sub_resource type="Animation" id=4]
resource_name = "Move"
length = 4.0
loop = true
tracks/0/type = "value"
tracks/0/path = NodePath(".:position")
tracks/0/interp = 1
tracks/0/loop_wrap = true
tracks/0/imported = false
tracks/0/enabled = true
tracks/0/keys = {
"times": PoolRealArray( 0.4, 1.8, 2.3, 3.6 ),
"transitions": PoolRealArray( 1, 1, 1, 1 ),
"update": 0,
"values": [ Vector2( 1715.29, 444.62 ), Vector2( 1900, 444.62 ), Vector2( 1900, 444.62 ), Vector2( 1715.29, 444.62 ) ]
}

[node name="Level" type="Node2D"]
script = ExtResource( 1 )
limit_top = -10
limit_right = 2300
limit_bottom = 725

[node name="TileMap" type="TileMap" parent="."]
tile_set = ExtResource( 2 )
cell_size = Vector2( 32, 32 )
collision_layer = 16
collision_mask = 0
format = 1
tile_data = PoolIntArray( 12, 536870914, 0, 65547, 536870914, 0, 131082, 536870914, 0, 196617, 536870914, 0, 196622, 5, 0, 196623, 5, 0, 196624, 5, 0, 262152, 536870914, 0, 327687, 536870914, 0, 327697, 5, 0, 327698, 5, 0, 327699, 5, 0, 393222, 536870914, 0, 458757, 536870914, 0, 458771, 5, 0, 458772, 5, 0, 458773, 5, 0, 458780, 536870914, 0, 524315, 536870914, 0, 589828, 5, 0, 589850, 536870914, 0, 655385, 536870914, 0, 720900, 536870918, 0, 720901, 5, 0, 720902, 5, 0, 720903, 5, 0, 720904, 5, 0, 720905, 5, 0, 720906, 5, 0, 720907, 5, 0, 720908, 6, 0, 720920, 536870914, 0, 786445, 536870914, 0, 786455, 536870914, 0, 786499, 14, 0, 851980, 536870914, 0, 851990, 536870914, 0, 852035, 11, 0, 917515, 536870914, 0, 917565, 536870915, 0, 917566, 3, 0, 917571, 11, 0, 917573, 536870915, 0, 917574, 3, 0, 983050, 536870914, 0, 983087, 11, 0, 983090, 536870914, 0, 983101, 536870915, 0, 983102, 3, 0, 983107, 12, 0, 983109, 536870915, 0, 983110, 3, 0, 1048585, 536870914, 0, 1048599, 536870918, 0, 1048600, 536870917, 0, 1048601, 536870917, 0, 1048602, 536870917, 0, 1048603, 536870917, 0, 1048604, 536870917, 0, 1048605, 6, 0, 1048623, 536870923, 0, 1048625, 536870914, 0, 1048637, 536870915, 0, 1048638, 3, 0, 1048643, 12, 0, 1048645, 536870915, 0, 1048646, 3, 0, 1114120, 536870914, 0, 1114134, 5, 0, 1114142, 5, 0, 1114159, 536870923, 0, 1114160, 536870914, 0, 1114173, 536870915, 0, 1114174, 3, 0, 1114179, 11, 0, 1114181, 536870915, 0, 1114182, 3, 0, 1179655, 536870914, 0, 1179669, 2, 0, 1179679, 536870914, 0, 1179685, 5, 0, 1179686, 5, 0, 1179687, 5, 0, 1179693, 536870912, 0, 1179694, 536870912, 0, 1179695, 536870912, 0, 1179709, 536870915, 0, 1179710, 4, 0, 1179711, 0, 0, 1179712, 0, 0, 1179713, 0, 0, 1179714, 0, 0, 1179715, 13, 0, 1179716, 0, 0, 1179717, 536870916, 0, 1179718, 3, 0, 1245190, 536870914, 0, 1245206, 2, 0, 1245214, 536870914, 0, 1245231, 536870923, 0, 1245245, 536870915, 0, 1245246, 3, 0, 1245253, 536870915, 0, 1245254, 3, 0, 1310725, 536870914, 0, 1310743, 2, 0, 1310749, 536870914, 0, 1310767, 536870923, 0, 1310781, 536870915, 0, 1310782, 3, 0, 1310789, 536870915, 0, 1310790, 3, 0, 1376260, 536870914, 0, 1376280, 536870912, 0, 1376281, 536870912, 0, 1376282, 536870912, 0, 1376283, 536870912, 0, 1376284, 536870912, 0, 1376303, 536870923, 0, 1376317, 536870915, 0, 1376318, 3, 0, 1376325, 536870915, 0, 1376326, 3, 0, 1441839, 536870923, 0, 1441853, 536870915, 0, 1441854, 3, 0, 1441861, 536870915, 0, 1441862, 3, 0, 1507375, 536870923, 0 )
__meta__ = {
"_edit_lock_": true
}

[node name="Monsters" type="Node" parent="."]

[node name="Enemy" parent="Monsters" instance=ExtResource( 3 )]
position = Vector2( 279.742, 333.196 )

[node name="Enemy2" parent="Monsters" instance=ExtResource( 3 )]
position = Vector2( 848.136, 477.522 )

[node name="Enemy3" parent="Monsters" instance=ExtResource( 3 )]
position = Vector2( 857.045, 645.011 )

[node name="Enemy4" parent="Monsters" instance=ExtResource( 3 )]
position = Vector2( 1507.4, 541.666 )

[node name="Enemy5" parent="Monsters" instance=ExtResource( 3 )]
position = Vector2( 2114.99, 545.23 )

[node name="Player" parent="." instance=ExtResource( 4 )]
position = Vector2( 153.235, 604.029 )

[node name="DeathPlane" type="Area2D" parent="."]
position = Vector2( 1913.43, 768.534 )

[node name="CollisionShape2D" type="CollisionShape2D" parent="DeathPlane"]
position = Vector2( 6.68176, 1.3364 )
shape = SubResource( 1 )

[node name="Clear" type="Area2D" parent="."]
position = Vector2( 2158.34, 504.353 )

[node name="CollisionShape2D" type="CollisionShape2D" parent="Clear"]
position = Vector2( 0.502197, -2.32239 )
shape = SubResource( 2 )

[node name="Water" type="Area2D" parent="."]
position = Vector2( 1233.39, 595.339 )
script = ExtResource( 5 )

[node name="ColorRect" type="ColorRect" parent="Water"]
margin_left = -222.264
margin_top = -204.0
margin_right = 206.762
margin_bottom = 2.14999
color = Color( 0, 0.721569, 0.886275, 0.160784 )
__meta__ = {
"_edit_use_anchors_": false
}

[node name="CollisionShape2D" type="CollisionShape2D" parent="Water"]
position = Vector2( -7.75085, -100.925 )
shape = SubResource( 3 )

[node name="Splash" type="AudioStreamPlayer" parent="Water"]
stream = ExtResource( 6 )

[node name="RespawnPoint" type="Position2D" parent="."]
position = Vector2( 177.668, 551.75 )

[node name="ShortPlatform" parent="." instance=ExtResource( 7 )]
position = Vector2( 1715.29, 444.62 )

[node name="AnimationPlayer" type="AnimationPlayer" parent="ShortPlatform"]
autoplay = "Move"
anims/Move = SubResource( 4 )

[node name="BGM" type="AudioStreamPlayer" parent="."]
stream = ExtResource( 8 )
autoplay = true

[node name="CheckPoints" type="Node" parent="."]

[node name="CheckPoint" parent="CheckPoints" instance=ExtResource( 9 )]
position = Vector2( 743, 211 )

[connection signal="body_entered" from="DeathPlane" to="." method="_on_DeathPlane_body_entered"]
[connection signal="body_entered" from="Clear" to="." method="_on_Clear_body_entered"]
[connection signal="body_entered" from="Water" to="." method="onWaterEnter"]
[connection signal="body_exited" from="Water" to="." method="onWaterExit"]
