[gd_scene load_steps=11 format=2]

[ext_resource path="res://src/Level/Level.gd" type="Script" id=1]
[ext_resource path="res://assets/art/tileset/winter_tileset.tres" type="TileSet" id=2]
[ext_resource path="res://src/Actors/Player.tscn" type="PackedScene" id=3]
[ext_resource path="res://src/Level/Water.gd" type="Script" id=4]
[ext_resource path="res://assets/audio/sfx/splash - blaukreuz (edited by Iwan 'qubodup' Gabovitch) .wav" type="AudioStream" id=5]
[ext_resource path="res://assets/audio/music/03 - Abstraction - Track 3.ogg" type="AudioStream" id=6]
[ext_resource path="res://src/Actors/Enemy.tscn" type="PackedScene" id=7]
[ext_resource path="res://src/Objects/CheckPoint.tscn" type="PackedScene" id=8]

[sub_resource type="RectangleShape2D" id=1]
extents = Vector2( 224, 872 )

[sub_resource type="RectangleShape2D" id=2]
extents = Vector2( 8, 64 )

[node name="Level" type="Node2D"]
script = ExtResource( 1 )
limit_right = 1216
limit_bottom = 2112

[node name="TileMap" type="TileMap" parent="."]
tile_set = ExtResource( 2 )
cell_size = Vector2( 32, 32 )
collision_layer = 16
collision_mask = 0
format = 1
tile_data = PoolIntArray( 65535, 18, 0, 0, 18, 0, 1, 18, 0, 2, 18, 0, 3, 18, 0, 4, 18, 0, 5, 18, 0, 6, 18, 0, 7, 18, 0, 8, 18, 0, 9, 18, 0, 10, 18, 0, 11, 18, 0, 12, 18, 0, 13, 18, 0, 14, 18, 0, 15, 18, 0, 16, 18, 0, 17, 18, 0, 18, 18, 0, 19, 18, 0, 20, 18, 0, 21, 18, 0, 22, 18, 0, 23, 18, 0, 24, 18, 0, 25, 18, 0, 26, 18, 0, 27, 18, 0, 28, 18, 0, 29, 18, 0, 30, 18, 0, 31, 18, 0, 32, 18, 0, 33, 18, 0, 34, 18, 0, 35, 18, 0, 36, 18, 0, 37, 18, 0, 38, 18, 0, 131071, 18, 0, 65542, 18, 0, 65574, 18, 0, 196607, 18, 0, 131078, 18, 0, 131110, 18, 0, 262143, 18, 0, 196614, 18, 0, 196646, 18, 0, 327679, 18, 0, 262150, 18, 0, 262182, 18, 0, 393215, 18, 0, 327686, 18, 0, 327718, 18, 0, 458751, 18, 0, 393222, 18, 0, 393254, 18, 0, 524287, 18, 0, 458758, 18, 0, 458790, 18, 0, 589823, 18, 0, 524294, 18, 0, 524308, 18, 0, 524326, 18, 0, 655359, 18, 0, 589830, 18, 0, 589844, 18, 0, 589862, 18, 0, 720895, 18, 0, 655366, 18, 0, 655377, 18, 0, 655378, 18, 0, 655379, 18, 0, 655380, 18, 0, 655398, 18, 0, 786431, 18, 0, 720902, 18, 0, 720913, 18, 0, 720914, 18, 0, 720915, 18, 0, 720916, 18, 0, 720934, 18, 0, 851967, 18, 0, 786438, 18, 0, 786452, 18, 0, 786470, 18, 0, 917503, 18, 0, 851974, 18, 0, 851982, 18, 0, 851988, 18, 0, 852006, 18, 0, 983039, 18, 0, 917510, 18, 0, 917524, 18, 0, 917542, 18, 0, 1048575, 18, 0, 983046, 18, 0, 983051, 18, 0, 983060, 18, 0, 983078, 18, 0, 1114111, 18, 0, 1048582, 18, 0, 1048596, 18, 0, 1048614, 18, 0, 1179647, 18, 0, 1114118, 18, 0, 1114119, 18, 0, 1114132, 18, 0, 1114150, 18, 0, 1245183, 18, 0, 1179654, 18, 0, 1179668, 18, 0, 1179686, 18, 0, 1310719, 18, 0, 1245190, 18, 0, 1245204, 18, 0, 1245222, 18, 0, 1376255, 18, 0, 1310726, 18, 0, 1310730, 18, 0, 1310740, 18, 0, 1310758, 18, 0, 1441791, 18, 0, 1376262, 18, 0, 1376276, 18, 0, 1376294, 18, 0, 1507327, 18, 0, 1441798, 18, 0, 1441812, 18, 0, 1441830, 18, 0, 1572863, 18, 0, 1507334, 18, 0, 1507341, 18, 0, 1507348, 18, 0, 1507366, 18, 0, 1638399, 18, 0, 1572870, 18, 0, 1572884, 18, 0, 1572902, 18, 0, 1703935, 18, 0, 1638406, 18, 0, 1638416, 18, 0, 1638420, 18, 0, 1638438, 18, 0, 1769471, 18, 0, 1703942, 18, 0, 1703956, 18, 0, 1703974, 18, 0, 1835007, 18, 0, 1769478, 18, 0, 1769492, 18, 0, 1769510, 18, 0, 1900543, 18, 0, 1835014, 18, 0, 1835020, 18, 0, 1835021, 18, 0, 1835022, 18, 0, 1835023, 18, 0, 1835028, 18, 0, 1835046, 18, 0, 1966079, 18, 0, 1900550, 18, 0, 1900564, 18, 0, 1900582, 18, 0, 2031615, 18, 0, 1966086, 18, 0, 1966100, 18, 0, 1966118, 18, 0, 2097151, 18, 0, 2031622, 18, 0, 2031636, 18, 0, 2031654, 18, 0, 2162687, 18, 0, 2097158, 18, 0, 2097159, 18, 0, 2097160, 18, 0, 2097161, 18, 0, 2097162, 18, 0, 2097163, 18, 0, 2097168, 18, 0, 2097169, 18, 0, 2097170, 18, 0, 2097171, 18, 0, 2097172, 18, 0, 2097190, 18, 0, 2228223, 18, 0, 2162694, 18, 0, 2162708, 18, 0, 2162726, 18, 0, 2293759, 18, 0, 2228230, 18, 0, 2228244, 18, 0, 2228262, 18, 0, 2359295, 18, 0, 2293766, 18, 0, 2293780, 18, 0, 2293798, 18, 0, 2424831, 18, 0, 2359302, 18, 0, 2359308, 18, 0, 2359309, 18, 0, 2359310, 18, 0, 2359311, 18, 0, 2359316, 18, 0, 2359334, 18, 0, 2490367, 18, 0, 2424838, 18, 0, 2424852, 18, 0, 2424870, 18, 0, 2555903, 18, 0, 2490374, 18, 0, 2490388, 18, 0, 2490406, 18, 0, 2621439, 18, 0, 2555910, 18, 0, 2555922, 18, 0, 2555924, 18, 0, 2555942, 18, 0, 2686975, 18, 0, 2621446, 18, 0, 2621460, 18, 0, 2621478, 18, 0, 2752511, 18, 0, 2686982, 18, 0, 2686996, 18, 0, 2687014, 18, 0, 2818047, 18, 0, 2752518, 18, 0, 2752528, 18, 0, 2752532, 18, 0, 2752550, 18, 0, 2883583, 18, 0, 2818054, 18, 0, 2818068, 18, 0, 2818086, 18, 0, 2949119, 18, 0, 2883590, 18, 0, 2883604, 18, 0, 2883622, 18, 0, 3014655, 18, 0, 2949126, 18, 0, 2949140, 18, 0, 2949158, 18, 0, 3080191, 18, 0, 3014662, 18, 0, 3014667, 18, 0, 3014668, 18, 0, 3014669, 18, 0, 3014670, 18, 0, 3014671, 18, 0, 3014676, 18, 0, 3014694, 18, 0, 3145727, 18, 0, 3080198, 18, 0, 3080212, 18, 0, 3080230, 18, 0, 3211263, 18, 0, 3145734, 18, 0, 3145736, 18, 0, 3145748, 18, 0, 3145766, 18, 0, 3276799, 18, 0, 3211270, 18, 0, 3211273, 18, 0, 3211275, 18, 0, 3211284, 18, 0, 3211302, 18, 0, 3342335, 18, 0, 3276806, 18, 0, 3276820, 18, 0, 3276838, 18, 0, 3407871, 18, 0, 3342342, 18, 0, 3342351, 18, 0, 3342352, 18, 0, 3342353, 18, 0, 3342354, 18, 0, 3342355, 18, 0, 3342356, 18, 0, 3342374, 18, 0, 3473407, 18, 0, 3407878, 18, 0, 3407892, 18, 0, 3407910, 18, 0, 3538943, 18, 0, 3473414, 18, 0, 3473428, 18, 0, 3473446, 18, 0, 3604479, 18, 0, 3538950, 18, 0, 3538951, 18, 0, 3538952, 18, 0, 3538953, 18, 0, 3538954, 18, 0, 3538955, 18, 0, 3538964, 18, 0, 3538982, 18, 0, 3670015, 18, 0, 3604486, 18, 0, 3604500, 18, 0, 3604518, 18, 0, 3735551, 18, 0, 3670022, 18, 0, 3670036, 18, 0, 3670054, 18, 0, 3801087, 18, 0, 3735558, 18, 0, 3735567, 18, 0, 3735568, 18, 0, 3735569, 18, 0, 3735570, 18, 0, 3735571, 18, 0, 3735572, 18, 0, 3735590, 18, 0, 3866623, 18, 0, 3801094, 18, 0, 3801108, 18, 0, 3801126, 18, 0, 3932159, 18, 0, 3866630, 18, 0, 3866644, 18, 0, 3866662, 18, 0, 3997695, 18, 0, 3932166, 18, 0, 3932180, 18, 0, 3932181, 536870930, 0, 3932182, 536870930, 0, 3932183, 536870930, 0, 3932184, 536870930, 0, 3932185, 536870930, 0, 3932186, 536870930, 0, 3932187, 536870930, 0, 3932196, 536870922, 0, 3932198, 18, 0, 4063231, 18, 0, 3997702, 18, 0, 3997703, 18, 0, 3997704, 18, 0, 3997705, 18, 0, 3997706, 18, 0, 3997713, 18, 0, 3997714, 18, 0, 3997715, 18, 0, 3997716, 18, 0, 3997717, 536870930, 0, 3997718, 536870930, 0, 3997719, 536870930, 0, 3997720, 536870930, 0, 3997721, 536870930, 0, 3997722, 536870930, 0, 3997723, 536870930, 0, 3997724, 536870930, 0, 3997731, 9, 0, 3997732, 536870923, 0, 3997733, 536870921, 0, 3997734, 18, 0, 4128767, 18, 0, 4063248, 18, 0, 4063249, 18, 0, 4063250, 18, 0, 4063251, 18, 0, 4063252, 18, 0, 4063253, 536870930, 0, 4063254, 536870930, 0, 4063255, 536870930, 0, 4063256, 536870930, 0, 4063257, 536870930, 0, 4063258, 536870930, 0, 4063259, 536870930, 0, 4063260, 536870930, 0, 4063261, 536870930, 0, 4063268, 16, 0, 4063270, 18, 0, 4194303, 18, 0, 4128783, 18, 0, 4128784, 18, 0, 4128785, 18, 0, 4128786, 18, 0, 4128787, 18, 0, 4128788, 536870930, 0, 4128789, 536870930, 0, 4128790, 536870930, 0, 4128791, 536870930, 0, 4128792, 536870930, 0, 4128793, 536870930, 0, 4128794, 536870930, 0, 4128795, 536870930, 0, 4128796, 536870930, 0, 4128797, 536870930, 0, 4128798, 536870930, 0, 4128804, 16, 0, 4128806, 18, 0, 4259839, 18, 0, 4194318, 18, 0, 4194319, 18, 0, 4194320, 18, 0, 4194321, 18, 0, 4194322, 18, 0, 4194323, 18, 0, 4194324, 536870930, 0, 4194325, 536870930, 0, 4194326, 536870930, 0, 4194327, 536870930, 0, 4194328, 536870930, 0, 4194329, 536870930, 0, 4194330, 536870930, 0, 4194331, 536870930, 0, 4194332, 536870930, 0, 4194333, 536870930, 0, 4194334, 536870930, 0, 4194335, 536870930, 0, 4194340, 8, 0, 4194342, 18, 0, 4325375, 18, 0, 4259840, 18, 0, 4259841, 18, 0, 4259842, 18, 0, 4259843, 18, 0, 4259844, 18, 0, 4259845, 18, 0, 4259846, 18, 0, 4259847, 18, 0, 4259848, 18, 0, 4259849, 18, 0, 4259850, 18, 0, 4259851, 18, 0, 4259852, 18, 0, 4259853, 18, 0, 4259854, 18, 0, 4259855, 18, 0, 4259856, 18, 0, 4259857, 18, 0, 4259858, 18, 0, 4259859, 18, 0, 4259860, 536870930, 0, 4259861, 536870930, 0, 4259862, 536870930, 0, 4259863, 536870930, 0, 4259864, 18, 0, 4259865, 18, 0, 4259866, 18, 0, 4259867, 18, 0, 4259868, 18, 0, 4259869, 18, 0, 4259870, 18, 0, 4259871, 18, 0, 4259872, 18, 0, 4259873, 18, 0, 4259874, 18, 0, 4259875, 18, 0, 4259876, 18, 0, 4259877, 18, 0, 4259878, 18, 0 )
__meta__ = {
"_edit_lock_": true
}

[node name="Player" parent="." instance=ExtResource( 3 )]
position = Vector2( 80, 104 )

[node name="RespawnPoint" type="Position2D" parent="."]
position = Vector2( 80.8, 64 )

[node name="Enemies" type="Node" parent="."]

[node name="Enemy" parent="Enemies" instance=ExtResource( 7 )]
position = Vector2( 424, 1432 )

[node name="Enemy2" parent="Enemies" instance=ExtResource( 7 )]
position = Vector2( 569.398, 1616 )

[node name="Enemy3" parent="Enemies" instance=ExtResource( 7 )]
position = Vector2( 472, 1096 )

[node name="Enemy4" parent="Enemies" instance=ExtResource( 7 )]
position = Vector2( 456, 848 )

[node name="Enemy5" parent="Enemies" instance=ExtResource( 7 )]
position = Vector2( 592, 280 )

[node name="Enemy6" parent="Enemies" instance=ExtResource( 7 )]
position = Vector2( 800, 1832 )
scale = Vector2( 8, 8 )
jumper = true
max_health = 2.0

[node name="Water" type="Area2D" parent="."]
position = Vector2( 1233.39, 595.339 )
script = ExtResource( 4 )

[node name="ColorRect" type="ColorRect" parent="Water"]
margin_left = -1017.39
margin_top = -363.339
margin_right = -569.39
margin_bottom = 1380.66
color = Color( 0, 0.721569, 0.886275, 0.160784 )
__meta__ = {
"_edit_use_anchors_": false
}

[node name="CollisionShape2D" type="CollisionShape2D" parent="Water"]
position = Vector2( -793.39, 508.661 )
shape = SubResource( 1 )

[node name="Splash" type="AudioStreamPlayer" parent="Water"]
stream = ExtResource( 5 )

[node name="BGM" type="AudioStreamPlayer" parent="."]
stream = ExtResource( 6 )
autoplay = true

[node name="Clear" type="Area2D" parent="."]
position = Vector2( 1168, 2020 )

[node name="CollisionShape2D" type="CollisionShape2D" parent="Clear"]
shape = SubResource( 2 )

[node name="CheckPoints" type="Node" parent="."]

[node name="CheckPoint" parent="CheckPoints" instance=ExtResource( 8 )]
position = Vector2( 658, 230 )

[connection signal="body_entered" from="Water" to="." method="onWaterEnter"]
[connection signal="body_exited" from="Water" to="." method="onWaterExit"]
[connection signal="body_entered" from="Clear" to="." method="_on_Clear_body_entered"]
